^C:\USERS\МАКСИМ\DOCUMENTS\VISUAL STUDIO 2010\PROJECTS\PROEKTIROVANIE\PROEKTIROVANIE\PROPERTIES\RESOURCES.RESX
^C:\USERS\Максим\DOCUMENTS\VISUAL STUDIO 2010\PROJECTS\PROEKTIROVANIE\PROEKTIROVANIE\ADDPRODUCTS.RESX
^C:\USERS\Максим\DOCUMENTS\VISUAL STUDIO 2010\PROJECTS\PROEKTIROVANIE\PROEKTIROVANIE\FORMS\FORM1.RESX
^C:\USERS\Максим\DOCUMENTS\VISUAL STUDIO 2010\PROJECTS\PROEKTIROVANIE\PROEKTIROVANIE\FORMS\ADDPRODUCTS.RESX
^C:\USERS\Максим\DOCUMENTS\VISUAL STUDIO 2010\PROJECTS\PROEKTIROVANIE\PROEKTIROVANIE\FORMS\FIND_PROD.RESX
